{
  "formatVersion": 1,
  "database": {
    "version": 1,
    "identityHash": "be63ae14c927fc6d7427d9208f9ba32d",
    "entities": [
      {
        "tableName": "MoodEntity",
        "createSql": "CREATE TABLE IF NOT EXISTS `${TABLE_NAME}` (`date` INTEGER NOT NULL, `mood` TEXT NOT NULL, `sleep` REAL NOT NULL, `id` INTEGER, PRIMARY KEY(`id`))",
        "fields": [
          {
            "fieldPath": "date",
            "columnName": "date",
            "affinity": "INTEGER",
            "notNull": true
          },
          {
            "fieldPath": "mood",
            "columnName": "mood",
            "affinity": "TEXT",
            "notNull": true
          },
          {
            "fieldPath": "sleep",
            "columnName": "sleep",
            "affinity": "REAL",
            "notNull": true
          },
          {
            "fieldPath": "id",
            "columnName": "id",
            "affinity": "INTEGER",
            "notNull": false
          }
        ],
        "primaryKey": {
          "columnNames": [
            "id"
          ],
          "autoGenerate": false
        },
        "indices": [],
        "foreignKeys": []
      }
    ],
    "views": [],
    "setupQueries": [
      "CREATE TABLE IF NOT EXISTS room_master_table (id INTEGER PRIMARY KEY,identity_hash TEXT)",
      "INSERT OR REPLACE INTO room_master_table (id,identity_hash) VALUES(42, 'be63ae14c927fc6d7427d9208f9ba32d')"
    ]
  }
}